A -0.474 0.367 -0.432 0.229
S 0.425 0.477 0.174 0.082 
M 0.133 0.155 0.195 -0.498 
D 0.397 -0.490 0.043 0.3555
A -13.7 -6.86 4.7 3.14
S -6.37 4.42 4.85 1.51
M -3.33 4.91 -1.01 -1.71
D 3.17 -1.76 3.21 -3.31
A 5.88e-11 -2.57e-10 3.37e-10 -2.54e-10 
S 1.11e-10 -1.45e-10 5.86e-11 -3.36e-10
M 4.19e-10 2.51e-10 3.14e-10 -4.53e-10
D 3.19e-10 3.67e-10 7.12e-11 -1.97e-10
A 0.313 -0.152 0 0 
S 0.463 -0.150 0 0
M -0.224 0.234 0 0
D 0.430 0.339 0 0
A 0 0 0.270 -0.244
S 0 0 -0.284 -0.424
M 0 0 0.073 0.169
D 0 0 0.466 -0.148
A 0 0 0 0
S 0 0 0 0
M 0 0 0 0
D 0 0 0 0
Q
